DataViz Makeover 1
…
usenet_words <- cleaned_text %>%
  unnest_tokens(word, text) %>%
  filter(str_detect(word, "[a-z']$"),
         !word %in% stop_words$word)

usenet_words %>%
  mutate(word=wordStem(word))%>%
  count(word, sort = TRUE)

# A tibble: 3,880 x 2
   word        n
   <chr>   <int>
 1 krono    1870
 2 gastech  1331
 3 abila     956
 4 govern    887
 5 publish   727
 6 pok       688
 7 polic     605
 8 locat     581
 9 titl      577
10 elodi     510
# ... with 3,870 more rows
…
